…
Difference in proportions: the old way

Difference in proportions with infer

mtcars %>%
  specify(am ~ vs, success = "1") %>%
  hypothesize(null = "independence") %>%
  generate(reps = 100, type = "permute") %>%
  calculate(stat = "diff in props", order = c("1", "0"))

## # A tibble: 100 x 2
##    replicate    stat
##        <int>   <dbl>
##  1         1  0.0397
##  2         2 -0.0873
##  3         3 -0.0873
##  4         4 -0.0873
##  5         5  0.167 
##  6         6  0.167 
##  7         7  0.0397
##  8         8  0.0397
##  9         9  0.167 
## 10        10  0.0397
## # ... with 90 more rows

infer functions

specify() - hypothesize() - generate() - calculate() -

Difference in means: the old way

Difference in means with infer

mtcars %>%
  specify(response = mpg, explanatory = am) %>%
  generate(reps = 100, type = "bootstrap") %>%
  calculate(stat = "diff in means", order = c("1", "0"))

## # A tibble: 100 x 2
##    replicate  stat
##        <int> <dbl>
##  1         1  4.82
##  2         2  8.30
##  3         3  5.65
##  4         4  7.06
##  5         5  9.86
##  6         6  5.93
##  7         7 10.4 
##  8         8  9.66
##  9         9 10.2 
## 10        10  9.17
## # ... with 90 more rows
…
We want to bootstrap the confidence intervals

library(dplyr)
library(broom)
set.seed(2014)
bootnls <- mtcars %>% bootstrap(100) %>%
    do(tidy(nls(mpg ~ k / wt + b, ., start=list(k=1, b=0))))

We get a clean data.frame that summarizes each replication

bootnls

## # A tibble: 200 x 6
## # Groups:   replicate [100]
##    replicate term  estimate std.error statistic  p.value
##        <int> <chr>    <dbl>     <dbl>     <dbl>    <dbl>
##  1         1 k        46.6       4.03    11.6   1.34e-12
##  2         1 b         4.36      1.54     2.83  8.13e- 3
##  3         2 k        54.2       4.96    10.9   5.76e-12
##  4         2 b         1.00      1.90     0.530 6.00e- 1
##  5         3 k        43.3       3.56    12.1   4.22e-13
##  6         3 b         4.83      1.30     3.72  8.10e- 4
##  7         4 k        48.5       4.46    10.9   6.07e-12
##  8         4 b         3.51      1.69     2.08  4.64e- 2
##  9         5 k        52.6       5.66     9.29  2.47e-10
## 10         5 b         3.34      2.30     1.45  1.56e- 1
## # ... with 190 more rows
…
